x1,x2,x3,x4,x5,x6,x7,x8,x9,x10,x11,x12,y
"0,353874165","1,248113264","2,062476576","4,414886499","2,691360427","5,578588648","1,112281596","1,054463372","1,846836136","2,954918549","2,611252668","1,406585998","-1,563343334"
"1,668159114","3,708279125","4,013441654","6,667142032","2,011215281","7,368434135","1,812031262","3,09836125","4,006861471","5,399648798","4,958425539","5,181481983","-4,737069544"
"0,634019575","2,088934415","3,512369702","4,021719521","3,538239139","6,310629813","2,754763933","2,589725191","3,18201088","2,941236181","3,784600845","4,218737605","-0,962842148"
"0,147426822","2,551304727","3,740424499","4,788816617","3,917288685","7,721064155","2,573966524","2,502496284","1,761766905","3,637594929","3,386104411","2,709177004","-3,95655231"
"1,679593497","2,452233696","1,941077455","6,002659717","1,464936718","4,371933348","1,913087657","-0,094560019","2,671400553","3,186301725","4,284773723","2,428421475","-1,90021461"
"1,630064268","1,597831727","3,975003593","3,95273023","3,228294418","6,763806499","0,460385754","1,579423471","3,218659061","3,768211863","3,411606303","4,480739555","-2,660312248"
"1,800884481","2,063868501","3,213829686","3,555910012","3,957581044","6,168066988","2,809078345","1,063108803","3,46999259","3,3761774","4,734414816","6,716160614","-1,295939866"
"1,608145118","2,691678621","3,259848689","5,028233435","2,372302294","6,300605741","3,691416336","1,613419573","3,663987762","3,085367065","3,909077609","4,439516774","-1,14902783"
"2,153225759","0,004855344","4,076182567","1,654640134","6,434127909","5,186791354","1,479873462","2,288400788","4,991405974","3,067338041","4,081118187","4,56499944","2,3068965984"
"1,256180662","1,872115548","1,751525811","2,969997174","1,3551467","2,777141749","1,287680696","3,146052297","0,872484861","1,596338828","3,281544379","2,54259253","-2,129846249"
"0,801662473","3,33739405","2,681032826","5,389504039","3,456396725","5,676989516","2,808893903","2,694414245","2,627643446","3,733518828","2,772000999","4,024809027","-3,700983718"
"2,266938986","1,549609934","3,616787689","3,384757527","3,807608244","6,394178252","3,294013587","0,714711049","5,337892057","4,497471925","5,57160169","5,913418824","0,6321179559"
"1,425143465","1,707618801","3,068889476","4,230153133","3,054303678","4,610812069","3,877251536","2,180702219","3,262707338","2,623935293","5,795682749","4,129611452","-0,272589443"
"0,758355477","3,705586303","2,004115793","5,021123994","1,07633351","5,845361808","2,979223662","2,217361995","1,334415639","1,79553928","4,383446228","3,466916061","-6,720213099"
"2,443119328","2,96403542","3,138303969","3,239499312","3,943080177","7,59305845","2,863074667","1,781585661","2,762353432","3,928465954","5,756411207","2,865528382","-2,670125251"
"0,974610342","2,037767527","4,226433808","4,061973026","4,295795589","7,208709326","3,894600631","2,466501158","2,993646485","2,687538096","3,327991112","6,103678579","-1,333382686"
"1,258193237","0,802070988","2,182401343","3,294183653","2,672265069","3,611576203","-0,978608854","1,251621038","3,182156816","1,296750386","4,060628738","3,207872142","-1,363248399"
"0,944219604","0,74461366","1,889731604","3,040093305","2,431480315","3,302896996","2,536776722","1,589076798","2,551731273","1,87517317","3,447664295","2,458519717","0,1328382508"
"0,92850502","2,841911849","2,255178821","4,497973418","2,752049536","5,703358819","3,334012762","4,39557252","2,092501026","2,189334503","2,144116857","3,896931177","-4,381036834"
"0,585354363","1,373777117","2,466518341","2,342478315","2,608759431","3,927347079","2,00314847","1,660455883","2,892546333","2,847847996","2,695138305","2,563653986","-1,061234445"
"-0,829405027","-0,267082759","2,213560382","0,972268268","2,273971592","4,164682638","2,228659741","0,024241953","2,866469576","2,671735472","0,211281471","5,073681257","-1,356955203"
"0,823737239","1,5859162","1,887543401","3,783662256","2,425921232","3,79889173","1,783836384","0,055310827","1,286339543","0,63194746","2,434445959","4,600341786","-1,430766489"
"0,740060356","3,304743796","3,271266743","4,731579743","4,890312714","6,480219937","1,568740644","2,162197552","3,309259322","3,94875634","4,077595427","4,407802501","-3,63798229"
"0,891098467","1,257151161","4,173123899","4,271705145","4,241306904","4,443913953","3,303685924","1,806385522","2,942520888","1,419307651","6,055664185","6,23693423","1,8030436309"
"1,791889791","1,636500391","3,788393181","2,49577667","3,628118236","7,011571728","3,425334502","2,167844812","5,103007768","1,774079689","4,032507042","4,537887147","0,440673724"
"1,432807393","0,726786658","3,619831043","2,168091235","1,355330659","6,819778213","3,696967273","3,929327341","1,529603695","3,836285482","6,993095348","5,33640824","-1,056714322"
"1,286017445","-0,28057779","3,061935181","-0,82110437","2,865588318","4,562770234","4,070958379","2,689305984","4,053226692","1,692265318","3,912164376","5,060476635","2,9126290916"
"-0,407219892","1,035128967","2,539552236","3,224287754","5,995178985","4,99419887","0,587226161","2,618532059","1,018150748","3,146815147","1,157924523","2,760504745","-2,205693133"
"1,805807808","2,574428028","1,528922042","2,84313587","3,087188237","2,653942566","1,957507733","0,697000987","1,967951848","0,903741744","5,486158425","3,430984683","0,0800151271"
"1,195268919","1,930238061","2,921799392","4,146477011","1,969122651","5,967961145","2,695843554","2,358345469","4,560754824","1,150868885","4,385237828","2,731951861","-0,237772191"
"2,660640194","0,931626726","4,57316083","4,57432727","4,204461776","5,528687035","4,470506821","2,445747938","6,148678949","4,220303814","5,726366915","5,790252609","2,3618492054"
"0,882155464","2,066991485","1,798218939","3,122283823","1,512070162","4,566333179","0,886231117","4,091682884","1,916743796","1,840664344","2,632974998","0,754294109","-4,476740599"
"0,205322594","1,952708444","0,671378758","2,853325534","1,545467602","3,123218627","0,026580444","0,230688452","2,13936407","1,388849593","1,823994094","0,99952873","-1,592679098"
"2,482189909","2,947300256","3,167950676","4,715253057","4,71298855","5,741731713","4,198797268","1,150413739","3,540090328","2,292573042","3,934535777","5,034816987","0,2553201901"
"1,565313069","0,998471575","3,280594187","1,412316947","3,901083566","5,174467499","2,491321746","0,326612217","4,414206599","1,922462412","4,999070504","4,384041057","4,3380229757"
"1,246140502","4,796778671","2,987141793","7,240089913","4,27907214","8,811858814","1,306475574","2,467353165","2,699719256","1,725094126","4,001777941","4,009211696","-5,216820144"
"2,210017042","1,418875391","2,992289171","2,425864556","3,158356033","5,68141574","2,030575764","1,496557397","4,596022426","2,08928729","5,687840471","4,729441701","1,8763736608"
"-0,539539494","2,338387132","3,319344894","2,368070044","3,952815995","7,266983819","-0,80928093","2,607405422","2,027034509","2,346798489","1,475917993","3,754319879","-4,28581032"
"2,409416119","3,734507052","3,920054347","5,014259284","3,324473759","8,202235866","1,626851373","-0,678108124","4,119126107","4,173852326","5,738445268","4,559594074","-1,045782558"
"1,492097084","2,60377925","3,025438225","4,090438709","1,989913365","7,47329827","3,546865832","0,857369233","4,23653309","1,695082121","3,204158451","2,470658366","-1,149575997"
"-0,933917017","2,295337377","2,307138617","4,107476802","4,50218812","5,018464837","0,738178797","1,384957336","3,899579365","2,931148579","3,020944149","3,736262741","-2,05910395"
"1,456425443","0,520826351","4,682769923","3,250807416","3,287700018","7,265309175","3,051054091","2,489798066","3,932311138","3,325680046","6,796511227","7,041884345","0,940337719"
"3,382897038","4,1130637","2,844652713","5,242775989","3,301196746","6,320418294","2,099317509","1,905238539","3,210090351","1,870073967","5,809861864","3,406412169","-1,448987172"
"3,146079537","1,862704929","3,194684883","4,736012166","4,815766501","5,124192713","2,344443879","2,268034919","3,456066385","4,264429199","5,592423303","4,189457225","1,8809147692"
"-1,138701899","0,334041604","3,252368523","2,759354937","4,048127143","4,853708947","2,275515766","2,081803934","2,672488327","1,931659037","2,538161676","5,252701645","-0,33641518"
"2,028351936","1,165082447","4,304299427","4,541395002","4,541296542","7,535044604","2,44569936","3,061432038","3,377940538","2,038969385","4,282976254","6,05174509","-0,789814595"
"0,61477729","2,900660673","1,622773769","5,417248532","2,80828864","3,218158107","1,411467768","0,267421498","1,466400284","0,605588077","2,231416148","3,01156527","-2,330935945"
"-0,626803807","2,243951771","3,025990992","3,494961325","4,026415894","5,709179351","2,022206631","1,280161264","3,491056098","2,335459457","2,328577623","3,101309251","-1,263250397"
"1,204416254","0,557668506","2,071955072","2,037862138","4,014187799","4,408992722","1,962783008","2,558748895","2,964135918","2,517358715","5,57115067","2,314268766","2,0879346493"
"1,198582507","1,784232761","3,552574714","4,068210715","4,92212009","4,798000195","3,103909737","2,109120585","5,460713798","2,135832418","3,517046336","4,243179609","0,5558940694"
"2,839838489","0,614975537","4,896616217","4,029915013","5,13142817","6,526890606","2,734516158","1,812853656","5,034959749","3,680748943","6,716971454","6,761387709","1,3861842076"
"1,138765866","1,226817607","4,15545655","3,934005424","4,398277551","6,749573299","3,892015976","1,632001327","3,874230117","3,520799782","3,59170532","5,757990031","-1,938646319"
"-0,91252308","2,739577764","3,315840899","3,960003985","4,56948324","6,476978136","1,461058494","1,946896179","3,276153624","3,438797468","1,697831569","5,713749797","-3,362710218"
"1,144428241","1,539545579","1,527906887","4,12157721","4,480860024","3,15232513","1,460462493","1,472090109","4,254169693","2,308432989","2,572445339","3,022494172","1,3200119788"
"0,14438087","2,145321544","2,500693481","2,732995841","2,662432651","5,205382996","1,203103966","2,649574932","4,264204423","2,309630318","3,080400549","1,574898327","-2,068081187"
"0,059406038","1,57010599","2,97575136","1,721338096","3,560142714","2,882758799","2,052855031","3,099286172","3,122500143","3,237564928","4,178168947","4,683247126","-1,037168422"
"1,226893229","0,236827071","2,555280182","1,031064549","3,851500286","4,359268287","3,292028094","1,225100896","3,53538433","1,67003949","4,273969052","3,389544269","1,6228318989"
"1,990589876","0,825087499","1,589984592","1,887069819","1,530493255","3,661138702","-0,532668387","0,870985548","3,409145134","1,952481953","4,928608399","3,417450488","-1,160554085"
"-0,330348373","0,738599877","4,110108165","2,557783486","4,832641385","6,784707307","2,63258785","1,690464346","4,032061","2,512101148","3,117600346","4,923783588","-1,024641062"
"2,180396124","1,376114059","3,985075899","4,938301778","2,941832989","4,873780346","2,204508641","1,045635387","2,530134592","1,601818326","6,28506727","5,15159169","1,6257924794"
"2,583420932","2,471564736","2,692978596","3,176836592","2,166576751","4,645791162","3,338595138","1,37995847","3,479915544","2,834003338","4,499313613","3,761409625","0,3683160649"
"1,093224483","2,174444727","2,660452623","4,387638119","5,372211892","5,954095083","1,3976386","1,174217188","2,32138218","2,474879061","4,133849","5,888849534","-3,543239408"
"1,560310682","2,28225145","3,650797706","4,084775998","4,446342765","5,678817483","1,093156483","2,053288084","3,261373341","3,591990895","6,354092383","5,318671797","-0,305203063"
"0,917820401","3,65946206","1,689203863","4,88482131","2,906813152","4,805832044","2,170842409","-0,892628441","2,772294581","0,691206018","2,665560158","2,450686169","-2,324256995"
"1,760151905","0,744313956","4,693815844","2,632052156","4,047503922","5,942840144","2,506824214","1,798315869","5,900319866","3,637268632","4,168391165","4,343857894","2,1272699252"
"0,559120708","3,231980492","2,566224768","5,582031538","3,328500989","6,439489751","3,4116561","1,127676888","2,309992293","4,359848706","3,74760238","3,939242282","-3,234762274"
"0,918564169","0,982803116","1,868709376","3,848510645","3,337703637","5,223409151","1,466976484","0,895777531","2,894312781","1,288630805","4,306551148","1,876923794","-0,453428179"
"0,054092991","2,818849793","1,124026142","4,490498475","3,713078968","5,413199459","1,823125653","-0,232220733","0,748104585","2,587611732","2,211842899","2,586922731","-2,703522603"
"-0,096983407","2,704835428","3,716724282","4,734777769","3,48406563","7,446298791","1,329029552","2,5392853","4,30125266","3,374792919","3,841726628","3,396822146","-2,667846646"
"3,201260369","1,082848025","2,36739811","2,825355767","3,534743754","3,233687679","3,150545422","0,601436409","3,200350933","2,660550245","4,087557221","4,618377022","1,0426875259"
"1,251984244","2,302965001","2,470690366","5,065170094","3,598670637","5,730062617","1,974547985","2,614358544","3,231068891","2,832487742","4,219720092","3,418804215","-2,591424997"
"0,142081728","1,024427046","3,055571177","1,670204595","4,520301617","6,646020139","2,124685021","2,198610596","1,864261701","2,068687558","4,679990373","3,169302866","0,1972495133"
"0,53014799","3,064472424","4,737500537","4,863692783","4,433749484","7,875487556","5,285190186","1,708090322","4,543732959","2,524271609","3,713058637","5,186662776","-1,08957929"
"1,093246457","3,191390893","4,373170621","5,437244518","4,049395509","9,075432562","2,618624751","3,92977446","0,854297276","3,904642689","5,533823434","5,685629576","-3,880682354"
"1,383958549","2,628233163","3,089217305","4,436785221","4,303721606","6,609859415","2,095416407","2,589936163","3,847319724","4,487742832","4,126276344","3,416661428","-0,65625147"
"1,272566688","3,52682164","1,849543092","3,875592815","2,082904922","5,518971061","3,525953064","1,286375849","1,54262574","1,610363755","3,595480559","3,781713216","-1,763761887"
"0,94553294","1,600380625","3,469864182","2,787887784","4,621273469","6,559445803","2,554942286","1,984873206","3,287764085","4,040172759","3,363869823","2,348426569","-1,558319995"
"0,077085076","1,607611738","1,68906977","3,21074267","2,147264441","4,422780335","1,800438681","2,515785218","2,964526895","2,241808203","1,464822027","1,783189504","-3,615487891"
"-1,127124428","3,228089299","3,156258847","4,760225337","5,057791917","7,940963577","2,83377758","2,042603221","3,875041234","3,021958065","2,704676902","5,222714934","-3,132218502"
"-0,245092975","3,014978261","1,319310796","2,929023075","3,176161655","3,84898909","2,782526077","2,847619066","1,798203743","3,369378094","0,219186719","2,286605264","-1,96550765"
"-0,379076451","1,801684857","4,411637724","3,712945419","4,716470956","7,47784066","2,976014241","1,988671329","3,0777852","3,124665176","4,231844613","2,904998482","-1,880795105"
"1,410739153","3,508420878","1,384767408","4,677211019","2,329342762","6,559290778","0,963258422","1,267127979","2,904416092","2,490486965","2,367015969","0,920917892","-3,695723687"
"2,475232376","1,97885575","2,626349348","3,060058281","1,874948866","6,304258917","2,28566039","2,268985058","2,26413719","2,003807019","5,704892107","2,294682507","-0,953481942"
"0,60191034","1,386444121","3,661621066","6,438508227","3,494062196","5,490016024","1,936533859","0,891109993","4,409229231","2,141703698","5,352068107","3,24938324","-0,963475454"
"1,966168385","3,556173904","3,397058702","3,905453029","2,534746538","7,713966204","2,623062468","1,435257064","1,727342001","2,805611613","5,974675125","5,079866256","-2,532167149"
"0,46547856","1,444060585","4,821007131","3,91387185","5,209487739","7,782770054","3,621766527","1,316734532","5,786266882","4,03648868","4,480596753","3,994728937","0,4312741145"
"0,759625572","1,561991305","2,058144059","4,432944942","3,845025809","5,297897612","1,674043534","1,953813289","2,264818352","2,06137142","3,406683514","2,453200264","-0,927967358"
"2,370069186","3,138019444","2,68746944","4,28306699","2,990578488","7,409444087","2,095386655","1,13437811","4,340167936","2,535342674","4,040594148","3,052698308","-1,149279643"
"0,174983472","2,046426589","2,57901526","6,015078206","3,758508407","5,661682551","2,712305526","3,041007654","2,029287634","1,489503823","0,90047814","5,038957182","-4,919606347"
"1,653183813","2,251912969","4,063916402","5,043261213","4,074510219","7,22308888","3,310037273","3,156284756","5,291244419","1,763339694","3,602648968","4,479970516","1,1570702398"
"-1,309690539","2,370308335","3,51030063","5,198914972","3,301521106","6,873112815","1,936232491","2,304808731","3,631641036","3,651614626","1,558135121","2,213167767","-4,478968534"
"0,699881937","2,064554948","1,586324953","3,186784966","1,146725749","2,114885853","2,160322393","1,781226564","3,086754117","0,941231464","2,544429434","2,603946588","-1,501087442"
"1,206929814","1,432099073","3,592916776","3,462709579","2,512144766","5,916525438","4,223898375","2,453108725","3,484462723","2,950892132","2,3158311","2,705570923","0,0380523967"
"0,324510708","3,361098247","3,431538425","5,373233912","4,254204691","9,38199157","3,497594395","1,338352469","4,993226937","2,997805265","4,121056768","1,532103942","-2,625168844"
"2,700838402","2,924783002","2,171005013","2,771866258","2,749739158","6,925173656","1,957478165","0,687137366","3,058167723","1,668299357","3,811354163","3,191218851","-1,034595483"
"2,195743419","3,273500422","2,797550929","3,42248184","2,979595945","5,749753189","3,266677949","-0,129167144","2,386465773","1,982779776","4,327035975","4,032564579","-0,227978971"
"1,755668201","2,308001343","4,656225329","2,529384452","5,695903882","8,549376986","2,723043872","2,953762141","3,89006946","2,227775346","5,34104183","5,153162845","1,3372202979"
"-0,624309274","3,2469381","2,894733692","4,299650967","2,5423228","7,566300871","2,708381383","0,616402901","4,347454747","1,545231195","2,0743231","4,576945251","-2,998977362"
"1,029038859","4,029947258","3,420420312","5,166017488","3,113629051","7,390559016","2,957621579","2,146940654","5,123233162","3,86851765","5,123505162","4,303148782","-4,26078226"
"0,859872274","1,618457259","0,733360133","4,224550361","3,044782634","2,987502696","0,327573615","0,303165987","1,896765129","2,101832705","2,643667529","2,130063796","-1,440445265"
