digraph Tree {
node [shape=box] ;
0 [label="Sex_female <= 0.5\ngini = 0.466\nsamples = 909\nvalue = [573, 336]"] ;
1 [label="Age <= 9.5\ngini = 0.289\nsamples = 588\nvalue = [485, 103]"] ;
0 -> 1 [labeldistance=2.5, labelangle=45, headlabel="True"] ;
2 [label="gini = 0.4829\nsamples = 27\nvalue = [11, 16]"] ;
1 -> 2 ;
3 [label="Passenger_Class <= 1.5\ngini = 0.2621\nsamples = 561\nvalue = [474, 87]"] ;
1 -> 3 ;
4 [label="gini = 0.4187\nsamples = 124\nvalue = [87, 37]"] ;
3 -> 4 ;
5 [label="gini = 0.2027\nsamples = 437\nvalue = [387, 50]"] ;
3 -> 5 ;
6 [label="Passenger_Class <= 2.5\ngini = 0.398\nsamples = 321\nvalue = [88, 233]"] ;
0 -> 6 [labeldistance=2.5, labelangle=-45, headlabel="False"] ;
7 [label="gini = 0.1277\nsamples = 175\nvalue = [12, 163]"] ;
6 -> 7 ;
8 [label="gini = 0.4992\nsamples = 146\nvalue = [76, 70]"] ;
6 -> 8 ;
}