Duration,VO2MAX,Heart_rate,Age,Height,Weight
660,"38,1",184,23,177,83
628,"38,4",183,21,163,52
637,"41,7",200,21,174,61
575,"33,5",170,42,160,50
590,"28,6",188,34,170,68
600,"23,9",190,43,171,68
562,"29,6",190,30,172,63
495,"27,3",180,49,157,53
540,"33,2",184,30,178,63
470,"26,6",162,57,161,63
408,"23,6",188,58,159,54
387,"23,1",170,51,162,55
564,"36,6",184,32,165,57
603,"35,8",175,42,170,53
420,28,180,51,158,47
573,"33,8",200,46,161,60
602,"33,6",190,37,173,56
430,21,170,50,161,62
508,"31,2",158,65,165,58
565,"31,2",186,40,154,69
464,"23,7",166,52,166,67
495,"24,5",170,40,160,58
461,"30,5",188,52,162,64
540,"25,9",190,47,161,72
588,"32,7",194,43,164,56
498,"26,9",190,48,176,82
483,"24,6",190,43,165,61
554,"28,8",188,45,166,62
521,"25,9",184,52,167,62
436,"24,4",170,52,168,62
398,"26,3",168,56,162,66
366,"23,2",175,56,159,56
439,"24,6",156,51,161,61
549,"28,8",184,44,154,56
360,"19,6",180,56,167,79
566,"31,4",184,40,165,56
407,"26,6",156,53,157,52
602,"30,6",194,52,161,65
488,"27,5",190,40,178,64
526,"30,9",188,55,162,61
524,"33,9",164,39,166,59
562,"32,3",185,57,168,68
496,"26,9",178,46,156,53
