digraph Tree {
node [shape=box, style="filled", color="black"] ;
0 [label="Sex_female <= 0.0\ngini = 0.4721\nsamples = 1309\nvalue = [809, 500]", fillcolor="#e5813961"] ;
1 [label="Age <= 9.5\ngini = 0.309\nsamples = 843\nvalue = [682, 161]", fillcolor="#e58139c3"] ;
0 -> 1 [labeldistance=2.5, labelangle=45, headlabel="True"] ;
2 [label="gini = 0.4867\nsamples = 43\nvalue = [18, 25]", fillcolor="#399de547"] ;
1 -> 2 ;
3 [label="Passenger_Class_1 <= 0.5\ngini = 0.2822\nsamples = 800\nvalue = [664, 136]", fillcolor="#e58139cb"] ;
1 -> 3 ;
4 [label="gini = 0.2188\nsamples = 624\nvalue = [546, 78]", fillcolor="#e58139db"] ;
3 -> 4 ;
5 [label="gini = 0.4419\nsamples = 176\nvalue = [118, 58]", fillcolor="#e5813982"] ;
3 -> 5 ;
6 [label="Passenger_Class_2 <= -0.5\ngini = 0.3965\nsamples = 466\nvalue = [127, 339]", fillcolor="#399de59f"] ;
0 -> 6 [labeldistance=2.5, labelangle=-45, headlabel="False"] ;
7 [label="Fare <= 23.35\ngini = 0.4998\nsamples = 216\nvalue = [110, 106]", fillcolor="#e5813909"] ;
6 -> 7 ;
8 [label="gini = 0.4921\nsamples = 183\nvalue = [80, 103]", fillcolor="#399de539"] ;
7 -> 8 ;
9 [label="gini = 0.1653\nsamples = 33\nvalue = [30, 3]", fillcolor="#e58139e6"] ;
7 -> 9 ;
10 [label="gini = 0.1268\nsamples = 250\nvalue = [17, 233]", fillcolor="#399de5ec"] ;
6 -> 10 ;
}